Hierarchial Clustering
…
library(readxl)
mall_customers_hier <- read_excel("Mall_Customers.xlsx")
colnames(mall_customers_hier)[4] <- "annual_income"
colnames(mall_customers_hier)[5] <- "score_spending"
show(mall_customers_hier) 

## Warning: `...` is not empty.
## 
## We detected these problematic arguments:
## * `needs_dots`
## 
## These dots only exist to allow future extensions and should be empty.
## Did you misspecify an argument?

## # A tibble: 200 x 5
##    CustomerID Gender   Age annual_income score_spending
##         <dbl> <chr>  <dbl>         <dbl>          <dbl>
##  1          1 Male      19            15             39
##  2          2 Male      21            15             81
##  3          3 Female    20            16              6
##  4          4 Female    23            16             77
##  5          5 Female    31            17             40
##  6          6 Female    22            17             76
##  7          7 Female    35            18              6
##  8          8 Female    23            18             94
##  9          9 Male      64            19              3
## 10         10 Female    30            19             72
## # ... with 190 more rows
…
